…
<br><img src="man/figures/supported-functions.png" align="center" width=100% />

    #> ── Attaching core tidyverse packages ──────────────────────── tidyverse 2.0.0 ──
    #> ✔ dplyr     1.1.4     ✔ readr     2.1.4
    #> ✔ forcats   1.0.0     ✔ stringr   1.5.1
    #> ✔ ggplot2   3.4.4     ✔ tibble    3.2.1
    #> ✔ lubridate 1.9.3     ✔ tidyr     1.3.0
    #> ✔ purrr     1.0.2     
    #> ── Conflicts ────────────────────────────────────────── tidyverse_conflicts() ──
    #> ✖ dplyr::filter() masks stats::filter()
    #> ✖ dplyr::lag()    masks stats::lag()
    #> ℹ Use the conflicted package (<http://conflicted.r-lib.org/>) to force all conflicts to become errors
    #> # A tibble: 42 × 5
    #>    api_type     method               description                chains providers
    #>    <chr>        <chr>                <chr>                      <chr>  <chr>    
    #>  1 EVM Core API eth_accounts         Returns an array of addre… Ether… Infura |…
    #>  2 EVM Core API eth_base_fee         Get the base fee for the … Ether… Quicknode
    #>  3 EVM Core API eth_blockNumber      Returns the latest block … Ether… Infura |…
    #>  4 EVM Core API eth_call             Executes a new message ca… Ether… Infura |…
    #>  5 EVM Core API eth_chainId          Returns the currently con… Ether… Infura |…
    #>  6 EVM Core API eth_coinbase         Returns the client coinba… Ether… Metamask 
    #>  7 EVM Core API eth_createAccessList Use this method to optimi… Ether… Infura |…
    #>  8 EVM Core API eth_estimateGas      Generates and returns an … Ether… Infura |…
    #>  9 EVM Core API eth_feeHistory       Returns historical gas in… Ether… Infura |…
    #> 10 EVM Core API eth_gasPrice         Returns the current price… Ether… Infura |…
    #> # ℹ 32 more rows
